Verilog/BCD/bcd_bin.vcd
$date
	Thu Apr 02 18:50:09 2026
$end
$version
	Icarus Verilog
$end
$timescale
	1ps
$end
$scope module BCD_bin_tb $end
$var wire 1 ! rdy $end
$var wire 16 " bin_d_out [15:0] $end
$var reg 12 # bin_d_in [11:0] $end
$var reg 1 $ clk $end
$var reg 1 % en $end
$scope module utt $end
$var wire 12 & bin_d_in [11:0] $end
$var wire 1 $ clk $end
$var wire 1 % en $end
$var wire 1 ! rdy $end
$var wire 16 ' bin_d_out [15:0] $end
$var parameter 3 ( ADD $end
$var parameter 3 ) DONE $end
$var parameter 3 * IDLE $end
$var parameter 3 + SETUP $end
$var parameter 3 , SHIFT $end
$var reg 2 - add_counter [1:0] $end
$var reg 28 . bcd_data [27:0] $end
$var reg 1 / busy $end
$var reg 1 0 result_rdy $end
$var reg 4 1 sh_counter [3:0] $end
$var reg 3 2 state [2:0] $end
$upscope $end
$upscope $end
$enddefinitions $end
$comment Show the parameter values. $end
$dumpall
b11 ,
b1 +
b0 *
b100 )
b10 (
$end
#0
$dumpvars
b0 2
b0 1
00
0/
b0 .
b0 -
b0 '
b0 &
0%
0$
b0 #
b0 "
0!
$end
#10000
1$
#11000
1%
b11111111 #
b11111111 &
#20000
0$
#30000
b1 2
b11111111 .
1$
#40000
0$
#50000
b10 2
1/
1$
#60000
0$
#70000
b1 -
1$
#80000
0$
#90000
b10 -
1$
#100000
0$
#110000
b11 -
1$
#120000
0$
#130000
b11 2
b0 -
1$
#140000
0$
#150000
b10 2
b111111110 .
b1 1
1$
#160000
0$
#170000
b1 -
1$
#180000
0$
#190000
b10 -
1$
#200000
0$
#210000
b11 -
1$
#220000
0$
#230000
b11 2
b0 -
1$
#240000
0$
#250000
b10 2
b1111111100 .
b10 1
1$
#260000
0$
#270000
b1 -
1$
#280000
0$
#290000
b10 -
1$
#300000
0$
#310000
b11 -
1$
#320000
0$
#330000
b11 2
b0 -
1$
#340000
0$
#350000
b10 2
b11111111000 .
b11 1
1$
#360000
0$
#370000
b1 -
1$
#380000
0$
#390000
b10 -
1$
#400000
0$
#410000
b11 -
1$
#420000
0$
#430000
b11 2
b0 -
1$
#440000
0$
#450000
b10 2
b111111110000 .
b100 1
1$
#460000
0$
#470000
b1 -
1$
#480000
0$
#490000
b10 -
1$
#500000
0$
#510000
b11 -
1$
#520000
0$
#530000
b11 2
b0 -
1$
#540000
0$
#550000
b1 "
b1 '
b10 2
b1111111100000 .
b101 1
1$
#560000
0$
#570000
b1 -
1$
#580000
0$
#590000
b10 -
1$
#600000
0$
#610000
b11 -
1$
#620000
0$
#630000
b11 2
b0 -
1$
#640000
0$
#650000
b11 "
b11 '
b10 2
b11111111000000 .
b110 1
1$
#660000
0$
#670000
b1 -
1$
#680000
0$
#690000
b10 -
1$
#700000
0$
#710000
b11 -
1$
#720000
0$
#730000
b11 2
b0 -
1$
#740000
0$
#750000
b111 "
b111 '
b10 2
b111111110000000 .
b111 1
1$
#760000
0$
#770000
b1010 "
b1010 '
b1 -
b1010111110000000 .
1$
#780000
0$
#790000
b10 -
1$
#800000
0$
#810000
b11 -
1$
#820000
0$
#830000
b11 2
b0 -
1$
#840000
0$
#850000
b10101 "
b10101 '
b10 2
b10101111100000000 .
b1000 1
1$
#860000
0$
#870000
b11000 "
b11000 '
b1 -
b11000111100000000 .
1$
#880000
0$
#890000
b10 -
1$
#900000
0$
#910000
b11 -
1$
#920000
0$
#930000
b11 2
b0 -
1$
#940000
0$
#950000
b110001 "
b110001 '
b10 2
b110001111000000000 .
b1001 1
1$
#960000
0$
#970000
b1 -
1$
#980000
0$
#990000
b10 -
1$
#1000000
0$
#1010000
b11 -
1$
#1020000
0$
#1030000
b11 2
b0 -
1$
#1040000
0$
#1050000
b1100011 "
b1100011 '
b10 2
b1100011110000000000 .
b1010 1
1$
#1060000
0$
#1070000
b1 -
1$
#1080000
0$
#1090000
b10010011 "
b10010011 '
b10 -
b10010011110000000000 .
1$
#1100000
0$
#1110000
b11 -
1$
#1120000
0$
#1130000
b11 2
b0 -
1$
#1140000
0$
#1150000
b100100111 "
b100100111 '
b10 2
b100100111100000000000 .
b1011 1
1$
#1160000
0$
#1170000
b100101010 "
b100101010 '
b1 -
b100101010100000000000 .
1$
#1180000
0$
#1190000
b10 -
1$
#1200000
0$
#1210000
b11 -
1$
#1220000
0$
#1230000
b11 2
b0 -
1$
#1240000
0$
#1250000
b1001010101 "
b1001010101 '
b100 2
b1001010101000000000000 .
b0 1
1$
#1260000
0$
#1270000
b0 2
1!
10
1$
#1280000
0$
#1290000
0/
0!
00
1$
#1291000
0%
